[gd_scene load_steps=3 format=2]

[ext_resource path="res://scripts/Asteroid.gd" type="Script" id=1]
[ext_resource path="res://assets/sfx/asteroidExplosion.wav" type="AudioStream" id=2]

[node name="Asteroid" type="StaticBody2D"]
position = Vector2( 0, 0.0424795 )
scale = Vector2( 2, 2 )
script = ExtResource( 1 )
speed = 10.0
leftScreenScore = 20
destroyedScore = 80

[node name="CollisionPolygon2D" type="CollisionPolygon2D" parent="."]
position = Vector2( -0.309566, -0.978831 )
scale = Vector2( 1, 1 )
polygon = PoolVector2Array( 0.289756, 0.171804, 1.13029, 1.46238, -0.479745, 1.51201 )
__meta__ = {
"_edit_group_": true
}

[node name="Polygon2D" type="Polygon2D" parent="."]
position = Vector2( -0.167505, -0.978831 )
color = Color( 0.529412, 0.0588235, 0.156863, 1 )
polygon = PoolVector2Array( -0.704675, 1.56165, 0.147694, 0.0725295, 1.09477, 1.52856 )

[node name="DeadSound" type="AudioStreamPlayer" parent="."]
stream = ExtResource( 2 )

[connection signal="finished" from="DeadSound" to="." method="_on_DeadSound_finished"]
