[gd_scene load_steps=2 format=2]

[ext_resource path="res://scripts/HUD.gd" type="Script" id=1]

[node name="HUD" type="Control"]
anchor_right = 1.0
anchor_bottom = 1.0
script = ExtResource( 1 )

[node name="ScoreLabel" type="Label" parent="."]
margin_right = 64.0
margin_bottom = 31.0
text = "0
"
align = 1

[node name="StartLabel" type="Label" parent="."]
margin_left = 16.3125
margin_top = 22.9663
margin_right = 55.3125
margin_bottom = 53.9663
text = "Press 
Start"
valign = 1

