[gd_scene load_steps=3 format=2]

[ext_resource path="res://scenes/Bullet.tscn" type="PackedScene" id=1]
[ext_resource path="res://scripts/PlayerBullet.gd" type="Script" id=2]

[node name="PlayerBullet" instance=ExtResource( 1 )]
z_index = 2
script = ExtResource( 2 )

[node name="ColorRect" parent="." index="1"]
color = Color( 0, 0, 0, 1 )

[connection signal="body_entered" from="." to="." method="_on_PlayerBullet_body_entered"]
